lo: [i4-g--] Unknown 8.8.4.4:853 <-- 192.168.1.159:48044
lo: [i4-g--] Unknown 8.8.8.8:853 <-- 192.168.1.159:56024
lo: [i4-g--] Unknown 8.8.4.4:853 <-- 192.168.1.159:48048
lo: [i4-g--] Unknown 8.8.4.4:853 <-- 192.168.1.159:48098
lo: [i4-g--] Unknown 8.8.4.4:853 <-- 192.168.1.159:48210
