lo: [i4----] DNS.133.netify.netflix 192.168.1.1:53 <-- 192.168.1.7:51543 H: ios.nccp.netflix.com
lo: [i4----] DNS.133.netify.netflix 192.168.1.1:53 <-- 192.168.1.7:52116 H: ichnaea.us-west-2.prodaa.netflix.com
lo: [i4-gd-] HTTPS.133.netify.netflix 54.69.204.241:443 <-- 192.168.1.7:53105 H: ichnaea.us-west-2.prodaa.netflix.com
lo: [i4-gd-] HTTPS.133.netify.netflix 54.191.17.51:443 <-- 192.168.1.7:53114 H: ios.nccp.us-west-2.prodaa.netflix.com
lo: [i4-g--] HTTPS 52.32.196.36:443 <-- 192.168.1.7:53115
lo: [i4-g--] HTTPS 52.32.196.36:443 <-- 192.168.1.7:53116
lo: [i4-g--] HTTPS 52.32.196.36:443 <-- 192.168.1.7:53117
lo: [i4-gd-] HTTPS.133.netify.netflix 54.69.204.241:443 <-- 192.168.1.7:53118 H: ichnaea.us-west-2.prodaa.netflix.com
lo: [i4----] SSDP 192.168.1.7:53776 --> 239.255.255.250:1900
lo: [i4-gd-] HTTPS.133.netify.netflix 54.69.204.241:443 <-- 192.168.1.7:53119 H: ichnaea.us-west-2.prodaa.netflix.com
lo: [i4----] DNS.133.netify.netflix 192.168.1.1:53 <-- 192.168.1.7:51949 H: api-global.latency.prodaa.netflix.com
lo: [i4-gd-] HTTPS.133.netify.netflix 52.89.39.139:443 <-- 192.168.1.7:53132 H: api-global.latency.prodaa.netflix.com
lo: [i4-gd-] HTTPS.133.netify.netflix 52.89.39.139:443 <-- 192.168.1.7:53133 H: api-global.latency.prodaa.netflix.com
lo: [i4-gd-] HTTPS.133.netify.netflix 52.89.39.139:443 <-- 192.168.1.7:53134 H: api-global.latency.prodaa.netflix.com
lo: [i4----] DNS.133.netify.netflix 192.168.1.1:53 <-- 192.168.1.7:57719 H: sha2.san.akam.nflximg.net
lo: [i4-gd-] HTTPS.10011.netify.akamai 104.86.97.179:443 <-- 192.168.1.7:53141 H: e3067.dscg.akamaiedge.net
lo: [i4----] DNS.133.netify.netflix 192.168.1.1:53 <-- 192.168.1.7:59180 H: artwork.akam.nflximg.net
lo: [i4-gd-] HTTP.10011.netify.akamai 184.25.204.25:80 <-- 192.168.1.7:53148 H: a1907.dscg.akamai.net
lo: [i4-gd-] HTTP.10011.netify.akamai 184.25.204.25:80 <-- 192.168.1.7:53149 H: a1907.dscg.akamai.net
lo: [i4-gd-] HTTP.10011.netify.akamai 184.25.204.25:80 <-- 192.168.1.7:53150 H: a1907.dscg.akamai.net
lo: [i4----] DNS.133.netify.netflix 192.168.1.1:53 <-- 192.168.1.7:58102 H: appboot.netflix.com
lo: [i4-gd-] HTTP.133.netify.netflix 54.201.191.132:80 <-- 192.168.1.7:53151 H: appboot.us-west-2.prodaa.netflix.com
lo: [i4-gd-] HTTP.133.netify.netflix 52.89.39.139:80 <-- 192.168.1.7:53152 H: api-global.latency.prodaa.netflix.com
lo: [i4----] DNS.10011.netify.akamai 192.168.1.1:53 <-- 192.168.1.7:51728 H: a803.dscg.akamai.net
lo: [i4-gd-] HTTP.10011.netify.akamai 184.25.204.24:80 <-- 192.168.1.7:53153 H: a803.dscg.akamai.net
lo: [i4----] DNS.133.netify.netflix 192.168.1.1:53 <-- 192.168.1.7:52347 H: ios.nccp.netflix.com
lo: [i4-gd-] HTTPS.133.netify.netflix 54.191.17.51:443 <-- 192.168.1.7:53162 H: ios.nccp.us-west-2.prodaa.netflix.com
lo: [i4-g--] HTTP 23.246.11.145:80 <-- 192.168.1.7:53163
lo: [i4-g--] HTTP 23.246.10.139:80 <-- 192.168.1.7:53164
lo: [i4-g--] HTTP 23.246.3.140:80 <-- 192.168.1.7:53171
lo: [i4-g--] HTTP 23.246.11.133:80 <-- 192.168.1.7:53172
lo: [i4-g--] HTTP 23.246.11.133:80 <-- 192.168.1.7:53173
lo: [i4-g--] HTTP 23.246.11.141:80 <-- 192.168.1.7:53174
lo: [i4-g--] HTTP 23.246.11.141:80 <-- 192.168.1.7:53175
lo: [i4-g--] HTTP 23.246.11.141:80 <-- 192.168.1.7:53176
lo: [i4-g--] HTTP 23.246.11.141:80 <-- 192.168.1.7:53177
lo: [i4-g--] HTTP 23.246.11.141:80 <-- 192.168.1.7:53178
lo: [i4-g--] HTTP 23.246.11.141:80 <-- 192.168.1.7:53179
lo: [i4-g--] HTTP 23.246.11.141:80 <-- 192.168.1.7:53180
lo: [i4-g--] HTTP 23.246.11.141:80 <-- 192.168.1.7:53181
lo: [i4-g--] HTTP 23.246.11.141:80 <-- 192.168.1.7:53182
lo: [i4-g--] HTTP 23.246.3.140:80 <-- 192.168.1.7:53183
lo: [i4-g--] HTTP 23.246.11.141:80 <-- 192.168.1.7:53184
lo: [i4-gd-] HTTPS.133.netify.netflix 54.191.17.51:443 <-- 192.168.1.7:53193 H: ios.nccp.us-west-2.prodaa.netflix.com
lo: [i4-gd-] HTTPS.133.netify.netflix 54.191.17.51:443 <-- 192.168.1.7:53202 H: ios.nccp.us-west-2.prodaa.netflix.com
lo: [i4----] DNS.133.netify.netflix 192.168.1.1:53 <-- 192.168.1.7:60962 H: ichnaea.geo.netflix.com
lo: [i4-gd-] HTTPS.133.netify.netflix 52.37.36.252:443 <-- 192.168.1.7:53203 H: ichnaea.latency.prodaa.netflix.com
lo: [i4-g--] HTTP 23.246.11.133:80 <-- 192.168.1.7:53210
lo: [i4-g--] HTTP 23.246.11.141:80 <-- 192.168.1.7:53217
lo: [i4----] DNS.133.netify.netflix 192.168.1.1:53 <-- 192.168.1.7:51622 H: ios.nccp.netflix.com
lo: [i4-gd-] HTTPS.133.netify.netflix 52.32.22.214:443 <-- 192.168.1.7:53238 H: ios.nccp.us-west-2.prodaa.netflix.com
lo: [i4----] DNS.133.netify.netflix 192.168.1.1:53 <-- 192.168.1.7:52095 H: api-global.latency.prodaa.netflix.com
lo: [i4-gd-] HTTPS.133.netify.netflix 52.41.30.5:443 <-- 192.168.1.7:53239 H: api-global.latency.prodaa.netflix.com
lo: [i4-gd-] HTTPS.133.netify.netflix 52.32.22.214:443 <-- 192.168.1.7:53248 H: ios.nccp.us-west-2.prodaa.netflix.com SSL C: ios.nccp.netflix.com
lo: [i4-gd-] HTTPS.133.netify.netflix 52.41.30.5:443 <-- 192.168.1.7:53249 H: api-global.latency.prodaa.netflix.com
lo: [i4-gd-] HTTPS.133.netify.netflix 52.41.30.5:443 <-- 192.168.1.7:53250 H: api-global.latency.prodaa.netflix.com
lo: [i4----] DNS.10011.netify.akamai 192.168.1.1:53 <-- 192.168.1.7:57093 H: a1907.dscg.akamai.net
lo: [i4-gd-] HTTP.10011.netify.akamai 184.25.204.10:80 <-- 192.168.1.7:53251 H: a1907.dscg.akamai.net
lo: [i4-gd-] HTTP.10011.netify.akamai 184.25.204.10:80 <-- 192.168.1.7:53252 H: a1907.dscg.akamai.net
